id,description,chart_template_id:id,type_tax_use,name,type,amount,account_collected_id:id,account_paid_id:id,base_code_id:id,tax_code_id:id,ref_base_code_id:id,ref_tax_code_id:id,ref_base_sign,ref_tax_sign,parent_id:id,python_compute
5,,l10n_chart_au,Purchase,NCI,percent,,account_2-1310_ept,account_2-1330_ept,Taxable Purchases for input-taxed sales,,Taxable Purchases for input-taxed sales,,-1,-1,,result = int(price_unit * 10) / 100.00
3,Non CAP Pur without GST In Price,l10n_chart_au,Purchase,NCF,percent,,account_2-1310_ept,account_2-1330_ept,Taxable Purchases Non Capital - Gst Free (G14 b),,Taxable Purchases Non Capital - Gst Free (G14 b),,-1,-1,,result = int(price_unit * 10) / 100.00
8,Exports 0% GST,l10n_chart_au,Sale,EXP,percent,,account_2-1310_ept,account_2-1330_ept,Taxable Sales Exports 0% (G2),,Taxable Sales Exports 0% (G2),,-1,-1,,"
# result = int(price_unit * 10) / 100.00"
10,,l10n_chart_au,Sale,INP,percent,,account_2-1310_ept,account_2-1330_ept,Taxable Sales Input-taxed 0%,,Taxable Sales Input-taxed 0%,,-1,-1,,# result = int(price_unit * 10) / 100.00
11,,l10n_chart_au,Sale,FRE,percent,,account_2-1310_ept,account_2-1330_ept,Taxable Sales other GST free,,Taxable Sales other GST free,,-1,-1,,# result = int(price_unit * 10) / 100.00
4,Capital Purchases including GST,l10n_chart_au,Purchase,CAG,percent,0.1,account_2-1310_ept,account_2-1330_ept,Taxable Purchases Capital Inc GST,Input GST (1B),Taxable Purchases Capital Inc GST,Input GST (1B),1,1,,result = int(price_unit * 10) / 100.00
12,Capital Purchases - GST Free,l10n_chart_au,Purchase,CAF,percent,,account_2-1310_ept,account_2-1330_ept,Taxable Purchases - Capital GST Free (G14 a),,Taxable Purchases - Capital GST Free (G14 a),,1,1,,result = int(price_unit * 10) / 100.00
6,10% GST on Sales,l10n_chart_au,Sale,GST ,percent,0.1,account_2-1310_ept,account_2-1330_ept,Taxable Sales GST 10%,Output GST (1A),Taxable Sales GST 10%,Output GST (1A),-1,-1,,result = int(price_unit * 10) / 100.00
1,Non-Capital Purchases inc GST,l10n_chart_au,Purchase,NCG,percent,0.1,account_2-1310_ept,account_2-1330_ept,Taxable Purchases Non-Capital inc GST,Input GST (1B),Taxable Purchases Non-Capital inc GST,Input GST (1B),1,1,,"# price_unit
# address : res.partner.address object or False
# product : product.product object or None
# partner : res.partner object or None

#result = int(price_unit * 10) / 100.00"
13,100.00%,l10n_chart_au,Purchase,GST 100%,percent,,account_2-1310_ept,account_2-1330_ept,GST Paid to custom ,,GST Paid to custom ,,1,1,,result = price_unit * 0.10
14,,l10n_chart_au,Purchase,FRE On Purchase,percent,,account_2-1310_ept,account_2-1330_ept,Taxable Purchases Non Capital - Gst Free (G14 b),,Taxable Purchases Non Capital - Gst Free (G14 b),,1,1,,result = price_unit * 0.10
15,,l10n_chart_au,Sale,N-T On Sale,percent,,account_2-1310_ept,account_2-1330_ept,N-T Sales ,,N-T Sales ,,1,1,,result = price_unit * 0.10
16,,l10n_chart_au,Purchase,N-T On Purchase,percent,,account_2-1310_ept,account_2-1330_ept,N-T Purchase ,,N-T Purchase ,,1,1,,result = price_unit * 0.10
